graph g{
 1 [style=filled color="0.0784313725490196 0.7058823529411765 0.5568627450980392"]
 5 [style=filled color="0.0784313725490196 0.7058823529411765 0.5568627450980392"]
 2 [style=filled color="0.0784313725490196 0.7058823529411765 0.5568627450980392"]
 3 [style=filled color="0.0784313725490196 0.7058823529411765 0.5568627450980392"]
 0 [style=filled color="0.0392156862745098 0.6666666666666666 0.5176470588235295"]
 4 [style=filled color="0.0392156862745098 0.6666666666666666 0.5176470588235295"]
 6 [style=filled color="0.0392156862745098 0.6666666666666666 0.5176470588235295"]
 1 -- 5
 2 -- 3
}
